{
	"spidermonkey": {
		"max_memory_mb":	 16,
        "optz_clear_frame":  true,
        "optz_clear_global": true,
        "optz_cache_code":   true
	},
	"scripts": {
		"folder":   "validate/"
	},
    "request" : {
        "uid_type" : "uid_short_ts"
    },
    "http" : {
        "verbose" : true,
        "modules" : {
            "adr_post":  { "url": "http://httpbin.org/post" }
        }
    },
    "logger" : {
        "folder" : "/tmp/"
    }
}
