{
    "request" : {
        "uid_type" : "uid_short_ts"
    },
    "accesstoken" : {
        "cleaning_probability" : 5
    },
    "http" : {
        "modules" : {
            "google": { "url": "https://www.google.com/" }
        }
    },
    "oauth" : {
        "login_page" : "login_samples/urania_plain.html"
    },
    "mysql" : {
        "user"       : "urania",
        "password"   : "u7RYYameHx8VTawW",
        "schema"     : "urania",
        "reader" : {
            "host"       : "localhost",
            "unix_socket": "/var/run/mysqld/mysqld.sock"
         },
         "writer" : {
            "host"       : "localhost",
            "unix_socket": "/var/run/mysqld/mysqld.sock"
         }
    },
    "logger" : {
        "folder" : "/tmp/"
    }
}
