{
    "request" : {
        "uid_type" : "uid_short_ts"
    },
    "accesstoken" : {
        "cleaning_probability" : 5
    },
    "oauth" : {
        "login_page" : "login_samples/urania_plain.html"
    },
    "mysql" : {
        "user"       : "urania",
        "password"   : "u7RYYameHx8VTawW",
        "schema"     : "urania",
        "reader" : {
            "host"       : "mariadb"
         },
         "writer" : {
            "host"       : "mariadb"
         }
    },
    "logger" : {
        "folder" : "/tmp/"
    }   
}
